{
	"Vue Prop": {
		"prefix": "vprop",
		"body": [
			"${1:propName}: {",
				"\ttype: ${2:String},",
				"\tdefault: () => ${3:'default-value'}",
			"},",
		],
		"description": "Creates new vue prop with default value and type check"
	},

	"Vue Watcher": {
		"prefix": "vwatch",
		"body": [
			"${1:watcherName}: function(newVal, oldVal){",
				"\t$0",
			"},",
		],
		"description": "Creates new vue watcher"
	},

	"Vue Deep Watcher": {
		"prefix": "vdw",
		"body": [
			"${1:watcherName}: {",
				"\thandler: function(newVal, oldVal){",
					"\t\t$0",
				"\t},",
				"\tdeep: true",
			"},",
		],
		"description": "Creates new vue watcher with deep checking enabled"
	},

	"Vue Computed Property": {
		"prefix": "vcp",
		"body": [
			"${1:propertyName}: function(){",
				"\t$0",
				"\treturn",
			"},",
		],
		"description": "Creates new vue computed property"
	},

	"Vue Computed Property with Getters and Setters": {
		"prefix": "vgscp",
		"body": [
			"${1:propName}: {",
				"\tget: function(){",
					"\t\t$0",
					"\t\treturn",
				"\t},",
				"\tset: function(){",
				"",
				"\t},",
			"},",
		],
		"description": "Creates new vue computed property"
	}
	
}